[
    {
        "number": "#LQ0001",
        "debtor": {
            "name": "Lucero Quiroga"
        },
        "amount": 19000,
        "due": "30 Nov 2021",
        "status": "Pending"
    },
    {
        "number": "#JW0002",
        "debtor": {
            "name": "Julie R. Wert"
        },
        "amount": 1600,
        "due": "30 Nov 2021",
        "status": "Paid"
    },
    {
        "number": "#RT0003",
        "debtor": {
            "name": "Robert D. Trevino"
        },
        "amount": 600,
        "due": "30 Nov 2021",
        "status": "Overdue"
    },
    {
        "number": "#AW0004",
        "debtor": {
            "name": "Jose A. Waldrup"
        },
        "amount": 600,
        "due": "30 Nov 2021",
        "status": "Pending"
    },
    {
        "number": "#MM0005",
        "debtor": {
            "name": "Michelle D. McMahon"
        },
        "amount": 600,
        "due": "30 Nov 2021",
        "status": "Pending"
    },
    {
        "number": "#JC0006",
        "debtor": {
            "name": "Jacqueline J. Cuevas"
        },
        "amount": 600,
        "due": "30 Nov 2021",
        "status": "Pending"
    },
    {
        "number": "#GR0007",
        "debtor": {
            "name": "Gwendolyn J. Rake"
        },
        "amount": 600,
        "due": "30 Nov 2021",
        "status": "Pending"
    }

]
